<?xml version="1.0" encoding="utf-8"?>
<!-- Generator: Adobe Illustrator 20.1.0, SVG Export Plug-In . SVG Version: 6.00 Build 0)  -->
<svg version="1.1" id="Layer_1" xmlns="http://www.w3.org/2000/svg" xmlns:xlink="http://www.w3.org/1999/xlink" x="0px" y="0px"
	 viewBox="0 0 24 24" style="enable-background:new 0 0 24 24;" xml:space="preserve">
<style type="text/css">
	.st0{fill:none;stroke:#000000;stroke-linecap:round;stroke-linejoin:round;stroke-miterlimit:10;}
</style>
<g>
	<path d="M16,13.1v-1.5v-3v-3v-3c0-1.7-4.1-2.5-8-2.5S0,0.9,0,2.6v3v3v3v3v3c0,1.7,4.1,2.5,8,2.5v1.5c0,1.7,4.1,2.5,8,2.5
		s8-0.8,8-2.5v-3v-3C24,13.9,19.9,13.1,16,13.1z M8,1.1c4.6,0,7,1.1,7,1.5c0,0.4-2.4,1.5-7,1.5S1,3.1,1,2.6C1,2.2,3.4,1.1,8,1.1z
		 M1,3.9c1.5,0.8,4.3,1.2,7,1.2s5.5-0.4,7-1.2v1.7c0,0.4-2.4,1.5-7,1.5S1,6.1,1,5.6V3.9z M1,6.9c1.5,0.8,4.3,1.2,7,1.2
		s5.5-0.4,7-1.2v1.7c0,0.4-2.4,1.5-7,1.5S1,9.1,1,8.6V6.9z M1,9.9c1.5,0.8,4.3,1.2,7,1.2s5.5-0.4,7-1.2v1.7c0,0.4-2.4,1.5-7,1.5
		s-7-1.1-7-1.5V9.9z M15,12.9v0.2c-0.2,0-0.3,0-0.5,0C14.7,13.1,14.8,13,15,12.9z M8,18.6v0.5c-4.6,0-7-1.1-7-1.5v-1.7
		c1.5,0.8,4.3,1.2,7,1.2V18.6z M8,15.6v0.5c-4.6,0-7-1.1-7-1.5v-1.7c1.5,0.8,4.3,1.2,7,1.2c0.5,0,1,0,1.5,0C8.6,14.5,8,15,8,15.6z
		 M23,21.6c0,0.4-2.4,1.5-7,1.5s-7-1.1-7-1.5v-1.7c1.5,0.8,4.3,1.2,7,1.2s5.5-0.4,7-1.2V21.6z M23,18.6c0,0.4-2.4,1.5-7,1.5
		s-7-1.1-7-1.5v-1.7c1.5,0.8,4.3,1.2,7,1.2s5.5-0.4,7-1.2V18.6z M16,17.1c-4.6,0-7-1.1-7-1.5c0-0.4,2.4-1.5,7-1.5s7,1.1,7,1.5
		C23,16.1,20.6,17.1,16,17.1z"/>
</g>
</svg>
